EESchema Schematic File Version 4
EELAYER 30 0
EELAYER END
$Descr A4 11693 8268
encoding utf-8
Sheet 1 1
Title ""
Date ""
Rev ""
Comp ""
Comment1 ""
Comment2 ""
Comment3 ""
Comment4 ""
$EndDescr
$Comp
L fab:UPDI-SMD-HEADER M1
U 1 1 5F4FFD9C
P 4050 4425
F 0 "M1" H 4050 4425 45  0001 C CNN
F 1 "UPDI-SMD-HEADER" H 4050 4425 45  0001 C CNN
F 2 "fab:fab-1X02SMD" H 4080 4575 20  0001 C CNN
F 3 "" H 4050 4425 50  0001 C CNN
	1    4050 4425
	1    0    0    -1  
$EndComp
$Comp
L fab:ATtiny3216 U1
U 1 1 5F500788
P 2175 3400
F 0 "U1" H 2175 4367 50  0000 C CNN
F 1 "ATtiny3216" H 2175 4276 50  0000 C CNN
F 2 "fab:fab-SOIC-20_7.5x12.8mm_P1.27mm" H 2175 3400 50  0001 C CIN
F 3 "" H 2175 3400 50  0001 C CNN
	1    2175 3400
	1    0    0    -1  
$EndComp
$Comp
L fab:FTDI-SMD-HEADER M2
U 1 1 5F502525
P 4175 3350
F 0 "M2" H 4175 3350 45  0001 C CNN
F 1 "FTDI-SMD-HEADER" H 4175 3350 45  0001 C CNN
F 2 "fab:fab-1X06SMD" H 4205 3500 20  0001 C CNN
F 3 "" H 4175 3350 50  0001 C CNN
	1    4175 3350
	1    0    0    -1  
$EndComp
Wire Wire Line
	4175 2850 3650 2850
Wire Wire Line
	4175 3150 3650 3150
Wire Wire Line
	4175 3250 3650 3250
Wire Wire Line
	4050 3925 3625 3925
Wire Wire Line
	4050 4025 3625 4025
Text Label 3625 3925 0    50   ~ 0
UPDI
Text Label 3625 4025 0    50   ~ 0
GND
Text Label 3650 2850 0    50   ~ 0
GND
Text Label 3650 3250 0    50   ~ 0
TX
Text Label 3650 3150 0    50   ~ 0
RX
NoConn ~ 4175 3350
NoConn ~ 4175 2950
$Comp
L fab:D_Schottky D2
U 1 1 5F504FB7
P 4025 3050
F 0 "D2" H 4025 3266 50  0000 C CNN
F 1 "D_Schottky" H 4025 3175 50  0000 C CNN
F 2 "fab:fab-SOD123" H 4045 3220 50  0001 C CNN
F 3 "" H 4025 3050 50  0001 C CNN
	1    4025 3050
	1    0    0    -1  
$EndComp
Wire Wire Line
	3875 3050 3650 3050
Text Label 3650 3050 0    50   ~ 0
5V
$Comp
L Device:C C1
U 1 1 5F508489
P 2175 2200
F 0 "C1" V 1923 2200 50  0000 C CNN
F 1 "1uF" V 2014 2200 50  0000 C CNN
F 2 "fab:fab-C1206" H 2213 2050 50  0001 C CNN
F 3 "~" H 2175 2200 50  0001 C CNN
	1    2175 2200
	0    1    1    0   
$EndComp
Wire Wire Line
	2325 2200 2775 2200
Wire Wire Line
	2025 2200 1575 2200
Wire Wire Line
	1575 2200 1575 2725
$Comp
L Device:LED D4
U 1 1 5F50997B
P 4925 850
F 0 "D4" H 4918 595 50  0000 C CNN
F 1 "PWR_LED" H 4918 686 50  0000 C CNN
F 2 "fab:LED_1206" H 4925 850 50  0001 C CNN
F 3 "~" H 4925 850 50  0001 C CNN
	1    4925 850 
	-1   0    0    1   
$EndComp
$Comp
L Device:R R2
U 1 1 5F50B42B
P 5325 850
F 0 "R2" V 5532 850 50  0000 C CNN
F 1 "499" V 5441 850 50  0000 C CNN
F 2 "fab:R_1206" V 5255 850 50  0001 C CNN
F 3 "~" H 5325 850 50  0001 C CNN
	1    5325 850 
	0    -1   -1   0   
$EndComp
Wire Wire Line
	5175 850  5075 850 
Wire Wire Line
	5475 850  5775 850 
Wire Wire Line
	4775 850  4475 850 
Text Label 4475 850  0    50   ~ 0
5V
Text Label 5775 850  2    50   ~ 0
GND
$Comp
L Device:LED D3
U 1 1 5F50EC9A
P 4900 1275
F 0 "D3" H 4893 1020 50  0000 C CNN
F 1 "LED" H 4893 1111 50  0000 C CNN
F 2 "fab:LED_1206" H 4900 1275 50  0001 C CNN
F 3 "~" H 4900 1275 50  0001 C CNN
	1    4900 1275
	-1   0    0    1   
$EndComp
$Comp
L Device:R R1
U 1 1 5F50ECA0
P 5300 1275
F 0 "R1" V 5507 1275 50  0000 C CNN
F 1 "499" V 5416 1275 50  0000 C CNN
F 2 "fab:R_1206" V 5230 1275 50  0001 C CNN
F 3 "~" H 5300 1275 50  0001 C CNN
	1    5300 1275
	0    -1   -1   0   
$EndComp
Wire Wire Line
	5150 1275 5050 1275
Wire Wire Line
	5450 1275 5750 1275
Wire Wire Line
	4750 1275 4450 1275
Text Label 4450 1275 0    50   ~ 0
LED
Text Label 5750 1275 2    50   ~ 0
GND
$Comp
L fab:BUTTON_B3SN SW1
U 1 1 5F50F260
P 6800 1275
F 0 "SW1" H 6800 1560 50  0000 C CNN
F 1 "BUTTON_B3SN" H 6800 1469 50  0000 C CNN
F 2 "fab:Button_Omron_B3SN_6x6mm" H 6800 1475 50  0001 C CNN
F 3 "https://omronfs.omron.com/en_US/ecb/products/pdf/en-b3sn.pdf" H 6800 1475 50  0001 C CNN
	1    6800 1275
	1    0    0    -1  
$EndComp
Wire Wire Line
	7000 1275 7400 1275
Wire Wire Line
	6600 1275 6100 1275
Text Label 6100 1275 0    50   ~ 0
BUTTON
Text Label 7400 1275 2    50   ~ 0
GND
$Comp
L power:PWR_FLAG #FLG01
U 1 1 5F510D1C
P 1275 1275
F 0 "#FLG01" H 1275 1350 50  0001 C CNN
F 1 "PWR_FLAG" V 1275 1403 50  0000 L CNN
F 2 "" H 1275 1275 50  0001 C CNN
F 3 "~" H 1275 1275 50  0001 C CNN
	1    1275 1275
	0    1    1    0   
$EndComp
Wire Wire Line
	2775 2200 2775 2725
$Comp
L power:PWR_FLAG #FLG02
U 1 1 5F51154C
P 1750 950
F 0 "#FLG02" H 1750 1025 50  0001 C CNN
F 1 "PWR_FLAG" H 1650 1125 50  0000 L CNN
F 2 "" H 1750 950 50  0001 C CNN
F 3 "~" H 1750 950 50  0001 C CNN
	1    1750 950 
	1    0    0    -1  
$EndComp
Connection ~ 1575 2200
Wire Wire Line
	1575 2200 1575 1825
Text Label 1575 1825 0    50   ~ 0
5V
Wire Wire Line
	1575 3775 1125 3775
Wire Wire Line
	1575 3925 1125 3925
Wire Wire Line
	1575 4075 1125 4075
Wire Wire Line
	1575 3625 1125 3625
Wire Wire Line
	1575 3475 1125 3475
Wire Wire Line
	1575 3325 1125 3325
Wire Wire Line
	1575 3175 1125 3175
Wire Wire Line
	1575 3025 1125 3025
Wire Wire Line
	1575 2875 1125 2875
Wire Wire Line
	2775 2875 3300 2875
Wire Wire Line
	2775 3025 3300 3025
Wire Wire Line
	2775 3175 3300 3175
Wire Wire Line
	2775 3325 3300 3325
Wire Wire Line
	2775 3475 3300 3475
Wire Wire Line
	2775 3625 3300 3625
Wire Wire Line
	2775 3775 3300 3775
Wire Wire Line
	2775 3925 3300 3925
Wire Wire Line
	2775 4075 3300 4075
Text Label 1125 3775 0    50   ~ 0
RX
Text Label 1125 3925 0    50   ~ 0
TX
Text Label 1125 3025 0    50   ~ 0
BUTTON
Text Label 1125 2875 0    50   ~ 0
LED
Wire Wire Line
	1375 5625 1000 5625
Wire Wire Line
	1375 5725 1000 5725
Wire Wire Line
	1375 5825 1000 5825
Wire Wire Line
	1375 5925 1000 5925
Wire Wire Line
	1375 6025 1000 6025
Wire Wire Line
	1375 6125 1000 6125
Wire Wire Line
	1375 6225 1000 6225
Wire Wire Line
	1375 6325 1000 6325
$Comp
L Connector:Conn_01x08_Female J3
U 1 1 5F538747
P 1900 5875
F 0 "J3" H 1850 6450 50  0000 C CNN
F 1 "TMC2208_R" H 1850 6300 50  0000 C CNN
F 2 "fab:fab-1X08" H 1900 5875 50  0001 C CNN
F 3 "~" H 1900 5875 50  0001 C CNN
	1    1900 5875
	-1   0    0    -1  
$EndComp
Wire Wire Line
	2100 6275 2475 6275
Wire Wire Line
	2100 6175 2475 6175
Wire Wire Line
	2100 6075 2475 6075
Wire Wire Line
	2100 5675 2475 5675
Wire Wire Line
	2100 5575 2475 5575
Text Label 2475 5575 2    50   ~ 0
DIR
Text Label 2475 5675 2    50   ~ 0
STEP
Text Label 2475 6275 2    50   ~ 0
ENABLE
Text Label 2475 6175 2    50   ~ 0
MS1
Text Label 2475 6075 2    50   ~ 0
MS2
Text Label 1000 6225 0    50   ~ 0
GND
Text Label 1000 5625 0    50   ~ 0
GND
Text Label 1000 5725 0    50   ~ 0
5V
Text Label 1000 5825 0    50   ~ 0
1B
Text Label 1000 5925 0    50   ~ 0
1A
Text Label 1000 6025 0    50   ~ 0
2A
Text Label 1000 6125 0    50   ~ 0
2B
Text Label 1000 6325 0    50   ~ 0
9V
Text Label 3300 3625 2    50   ~ 0
DIR
Text Label 3300 3475 2    50   ~ 0
STEP
Text Label 3300 3025 2    50   ~ 0
MS1
Text Label 3300 3175 2    50   ~ 0
MS2
Text Label 3300 2875 2    50   ~ 0
ENABLE
NoConn ~ 2100 5775
NoConn ~ 2100 5875
NoConn ~ 2100 5975
Text Label 3300 3325 2    50   ~ 0
UPDI
$Comp
L Connector_Generic:Conn_02x02_Top_Bottom J4
U 1 1 5F547042
P 3950 5050
F 0 "J4" H 4000 5267 50  0000 C CNN
F 1 "Stepper" H 4000 5176 50  0000 C CNN
F 2 "fab:fab-2X02SMD" H 3950 5050 50  0001 C CNN
F 3 "~" H 3950 5050 50  0001 C CNN
	1    3950 5050
	1    0    0    -1  
$EndComp
Wire Wire Line
	3750 5050 3375 5050
Wire Wire Line
	3750 5150 3375 5150
Wire Wire Line
	4250 5050 4625 5050
Wire Wire Line
	4250 5150 4625 5150
Text Label 3375 5050 0    50   ~ 0
1A
Text Label 3375 5150 0    50   ~ 0
1B
Text Label 4625 5050 2    50   ~ 0
2A
Text Label 4625 5150 2    50   ~ 0
2B
Wire Wire Line
	1275 1150 1275 1275
Connection ~ 1275 1275
Wire Wire Line
	1275 1275 1275 1500
Text Label 1975 950  2    50   ~ 0
9V
$Comp
L fab:Regulator_Linear_LM3480-5.0V-100mA U2
U 1 1 5F55F89F
P 3175 975
F 0 "U2" H 3175 1217 50  0000 C CNN
F 1 "Regulator_LM3480-5V-0.1A" H 3175 1126 50  0000 C CNN
F 2 "fab:SOT-23" H 3175 1200 50  0001 C CIN
F 3 "https://www.ti.com/lit/ds/symlink/lm3480.pdf" H 3175 975 50  0001 C CNN
	1    3175 975 
	1    0    0    -1  
$EndComp
Wire Wire Line
	2875 975  2675 975 
Wire Wire Line
	3475 975  3575 975 
Wire Wire Line
	3175 1275 3175 1475
$Comp
L power:GND #PWR02
U 1 1 5F56B98C
P 3175 1475
F 0 "#PWR02" H 3175 1225 50  0001 C CNN
F 1 "GND" H 3180 1302 50  0000 C CNN
F 2 "" H 3175 1475 50  0001 C CNN
F 3 "" H 3175 1475 50  0001 C CNN
	1    3175 1475
	1    0    0    -1  
$EndComp
$Comp
L power:GND #PWR01
U 1 1 5F56BE94
P 1275 1500
F 0 "#PWR01" H 1275 1250 50  0001 C CNN
F 1 "GND" H 1280 1327 50  0000 C CNN
F 2 "" H 1275 1500 50  0001 C CNN
F 3 "" H 1275 1500 50  0001 C CNN
	1    1275 1500
	1    0    0    -1  
$EndComp
Text Label 2325 975  0    50   ~ 0
9V
Text Label 3975 975  2    50   ~ 0
5V
$Comp
L Device:C C3
U 1 1 5F573523
P 3575 1125
F 0 "C3" H 3690 1171 50  0000 L CNN
F 1 "1uF" H 3690 1080 50  0000 L CNN
F 2 "fab:fab-C1206" H 3613 975 50  0001 C CNN
F 3 "~" H 3575 1125 50  0001 C CNN
	1    3575 1125
	1    0    0    -1  
$EndComp
Connection ~ 3575 975 
Wire Wire Line
	3575 975  3975 975 
Wire Wire Line
	3575 1275 3175 1275
Connection ~ 3175 1275
$Comp
L Device:C C2
U 1 1 5F57B64F
P 2675 1125
F 0 "C2" H 2790 1171 50  0000 L CNN
F 1 "1uF" H 2790 1080 50  0000 L CNN
F 2 "fab:fab-C1206" H 2713 975 50  0001 C CNN
F 3 "~" H 2675 1125 50  0001 C CNN
	1    2675 1125
	1    0    0    -1  
$EndComp
Wire Wire Line
	2675 1275 3175 1275
Connection ~ 2675 975 
Wire Wire Line
	2675 975  2325 975 
$Comp
L fab:D_Schottky D1
U 1 1 5F586844
P 1425 950
F 0 "D1" H 1425 734 50  0000 C CNN
F 1 "D_Schottky" H 1425 825 50  0000 C CNN
F 2 "fab:fab-SOD123" H 1445 1120 50  0001 C CNN
F 3 "" H 1425 950 50  0001 C CNN
	1    1425 950 
	-1   0    0    1   
$EndComp
Connection ~ 1750 950 
Wire Wire Line
	1750 950  1975 950 
Wire Wire Line
	1575 950  1750 950 
$Comp
L Connector:Conn_01x08_Female J2
U 1 1 5F5232D9
P 1575 6025
F 0 "J2" H 1467 5400 50  0000 C CNN
F 1 "TMC2208_L" H 1467 5491 50  0000 C CNN
F 2 "fab:fab-1X08" H 1575 6025 50  0001 C CNN
F 3 "~" H 1575 6025 50  0001 C CNN
	1    1575 6025
	1    0    0    1   
$EndComp
$Comp
L Connector:Barrel_Jack_Switch J1
U 1 1 5F5B5293
P 975 1050
F 0 "J1" H 825 1375 50  0000 C CNN
F 1 "PWR_Barrel_Jack" H 850 1275 50  0000 C CNN
F 2 "custom-footprints:Power_Barrel_Jack_PJ-002AH-SMT-TR" H 1025 1010 50  0001 C CNN
F 3 "~" H 1025 1010 50  0001 C CNN
	1    975  1050
	1    0    0    -1  
$EndComp
Wire Wire Line
	1275 1050 1275 1150
Connection ~ 1275 1150
$EndSCHEMATC
